TIME, RPM
0 , 0
0 , 1060
1 , 1540
3 , 1140
4 , 420
5 , 798
6 , 1120
7 , 627
8 , 580
9 , 608
10 , 680
11 , 700
12 , 494
13 , 1060
14 , 779
15 , 680
16 , 1140
17 , 1060
18 , 931
19 , 540
20 , 780
21 , 684
22 , 860
23 , 760
24 , 620
25 , 1330
26 , 760
27 , 589
28 , 580
29 , 620
30 , 817
31 , 420
32 , 532
33 , 840
34 , 1045
35 , 0
36 , 0
37 , 0
